{
    "index": {
        "download_fdroid": "F-Droid'i İndir", 
        "gpg_signature": "PGP İmzası", 
        "introduction": "F-Droid Android platformu için FOSS (Özgür ve Açık Kaynaklı Yazılım) uygulamalarının [yüklenebilir](https://f-droid.org/FDroid.apk) bir kataloğudur. İstemci, uygulamaları taramayı, kurmayı ve  güncellemeleri aygıtınızda izlemeyi kolaylaştırır.", 
        "screenshot": "F-Droid Android uygulaması ekran görüntüsü", 
        "title": "F-Droid nedir?"
    }, 
    "navigation": {
        "about": "Hakkında", 
        "browse": "Göz At", 
        "contribute": "Katkıda Bulun", 
        "documentation": "Belgeler", 
        "forum": "Forum", 
        "issues": "Sorunlar", 
        "news": "Haberler", 
        "repomaker": "Repomaker"
    }, 
    "package": {
        "changelog": "Değişiklikler", 
        "donate": "Bağış", 
        "download": "[file_extension] indir", 
        "flattr": "Flattr", 
        "gpg_signature": "PGP İmzası", 
        "issue_tracker": "Sorun İzleyici", 
        "license": "Lisans", 
        "minimum_android_version": "Bu sürüm Android [android_version] veya daha yenisini gerektirir.", 
        "new_in_version": "Sürümdeki yenilikler [latest_version]", 
        "packages": "Paketler", 
        "permissions": "İzinler", 
        "signed_by_developer": "Özgün geliştirici tarafından oluşturuldu ve imzalandı.", 
        "signed_by_fdroid": "F-Droid tarafından oluşturuldu ve imzalandı, ve <a href=\"[source_code_url]\">bu kaynak tar dosyasına</a> uygunluğu garanti edilir.", 
        "source_code": "Kaynak Kodu", 
        "suggest_downloading_via_fdroid": "Aşağıdaki APK indirmeliri size seçenek sunsa da, bu şekilde kurarsanız güncelleme bildirimlerini almayacağınızı ve bunun daha güvensiz bir indirme yolu olduğunu unutmayın. F-Droid istemcisini kuramanızı ve onu kullanmanızı öneriyoruz.", 
        "technical_info": "Teknik bilgi", 
        "version_info": "<b>Sürüm [package_version]</b> ([package_version_code]) - [package_added_date] tarihinde eklendi", 
        "website": "Web Sitesi"
    }, 
    "sidebars": {
        "donate": {
            "bank_transfer_name": "Adı", 
            "bitcoin_alt": "Bitcoin", 
            "flattr_alt": "Flattr", 
            "heading": "Bağış", 
            "paypal_alt": "PayPal", 
            "powered_by_donations": "F-Droid bağışlarınızla güç bulur!", 
            "via_bank_transfer": "Banka Havalesi"
        }, 
        "last_updated": {
            "heading": "Son Güncelleme"
        }, 
        "latest_packages": {
            "heading": "En Son Uygulamalar"
        }, 
        "news": {
            "heading": "Haberler"
        }, 
        "search": {
            "heading": "Uygulamaları Bul", 
            "noscript": "JavaScript'in etkinleştirilmesini gerektirir"
        }
    }
}